csee4824-project-4/output/map_table.out
Info: [VCS_SAVE_RESTORE_INFO] ASLR (Address Space Layout Randomization) is detected on the machine. To enable $save functionality, ASLR will be switched off and simv re-executed.
Please use '-no_save' simv switch to avoid re-execution or '-suppress=ASLR_DETECTED_INFO' to suppress this message.
Chronologic VCS simulator copyright 1991-2023
Contains Synopsys proprietary information.
Compiler version U-2023.03-SP2-1_Full64; Runtime version U-2023.03-SP2-1_Full64;  Apr 18 18:42 2025
Time:   0 clock:0 reset:1 read_cdb:0 load_entry:0 retire_entry:0 retire_addr:00000 retire_tag:000000 rs1_addr:00000 rs2_addr:00000 r_dest:00000 tag_in:000000 cdb_tag_in:000000 rs1_tag:xxxxxxx rs2_tag:xxxxxxx
Time:   1 clock:1 reset:1 read_cdb:0 load_entry:0 retire_entry:0 retire_addr:00000 retire_tag:000000 rs1_addr:00000 rs2_addr:00000 r_dest:00000 tag_in:000000 cdb_tag_in:000000 rs1_tag:0000000 rs2_tag:0000000
Time:   1 clock:0 reset:0 read_cdb:0 load_entry:1 retire_entry:0 retire_addr:00000 retire_tag:000000 rs1_addr:00001 rs2_addr:00010 r_dest:00001 tag_in:000001 cdb_tag_in:000000 rs1_tag:0000000 rs2_tag:0000000
Time:   2 clock:1 reset:0 read_cdb:0 load_entry:1 retire_entry:0 retire_addr:00000 retire_tag:000000 rs1_addr:00001 rs2_addr:00010 r_dest:00001 tag_in:000001 cdb_tag_in:000000 rs1_tag:0000010 rs2_tag:0000000
Time:   2 clock:0 reset:0 read_cdb:0 load_entry:1 retire_entry:0 retire_addr:00000 retire_tag:000000 rs1_addr:00010 rs2_addr:00001 r_dest:00010 tag_in:000010 cdb_tag_in:000000 rs1_tag:0000000 rs2_tag:0000010
Time:   3 clock:1 reset:0 read_cdb:0 load_entry:1 retire_entry:0 retire_addr:00000 retire_tag:000000 rs1_addr:00010 rs2_addr:00001 r_dest:00010 tag_in:000010 cdb_tag_in:000000 rs1_tag:0000100 rs2_tag:0000010
Time:   3 clock:0 reset:0 read_cdb:1 load_entry:0 retire_entry:0 retire_addr:00000 retire_tag:000000 rs1_addr:00010 rs2_addr:00001 r_dest:00000 tag_in:000000 cdb_tag_in:000001 rs1_tag:0000100 rs2_tag:0000010
Time:   4 clock:1 reset:0 read_cdb:1 load_entry:0 retire_entry:0 retire_addr:00000 retire_tag:000000 rs1_addr:00010 rs2_addr:00001 r_dest:00000 tag_in:000000 cdb_tag_in:000001 rs1_tag:0000100 rs2_tag:0000011
Time:   4 clock:0 reset:0 read_cdb:0 load_entry:0 retire_entry:1 retire_addr:00001 retire_tag:000001 rs1_addr:00010 rs2_addr:00011 r_dest:00011 tag_in:000001 cdb_tag_in:000001 rs1_tag:0000100 rs2_tag:0000000
Time:   5 clock:1 reset:0 read_cdb:0 load_entry:0 retire_entry:1 retire_addr:00001 retire_tag:000001 rs1_addr:00010 rs2_addr:00011 r_dest:00011 tag_in:000001 cdb_tag_in:000001 rs1_tag:0000100 rs2_tag:0000000
Time:   5 clock:0 reset:0 read_cdb:0 load_entry:1 retire_entry:0 retire_addr:00000 retire_tag:000001 rs1_addr:00001 rs2_addr:00010 r_dest:00011 tag_in:000010 cdb_tag_in:000000 rs1_tag:0000000 rs2_tag:0000100
Time:   6 clock:1 reset:0 read_cdb:0 load_entry:1 retire_entry:0 retire_addr:00000 retire_tag:000001 rs1_addr:00001 rs2_addr:00010 r_dest:00011 tag_in:000010 cdb_tag_in:000000 rs1_tag:0000000 rs2_tag:0000100
$finish called from file "test/map_table_test.sv", line 126.
$finish at simulation time                 6000
           V C S   S i m u l a t i o n   R e p o r t 
Time: 6000 ps
CPU Time:      0.190 seconds;       Data structure size:   0.0Mb
Fri Apr 18 18:42:23 2025
