csee4824-project-4/output/reorder_buffer.out
Info: [VCS_SAVE_RESTORE_INFO] ASLR (Address Space Layout Randomization) is detected on the machine. To enable $save functionality, ASLR will be switched off and simv re-executed.
Please use '-no_save' simv switch to avoid re-execution or '-suppress=ASLR_DETECTED_INFO' to suppress this message.
Chronologic VCS simulator copyright 1991-2023
Contains Synopsys proprietary information.
Compiler version U-2023.03-SP2-1_Full64; Runtime version U-2023.03-SP2-1_Full64;  Apr 18 18:40 2025
Time:   0 | clk:1 rst:1 | Dispatch: valid=0 dest=00000 opcode=0000000 | CDB: valid=0 tag=000000 value=00000000 | Retire: tag=000000 dest=00000 value=00000000 reg_valid=0 mem_valid=0 | rob_full=0
Time:   1 | clk:0 rst:0 | Dispatch: valid=1 dest=00001 opcode=0110011 | CDB: valid=0 tag=000000 value=00000000 | Retire: tag=000000 dest=00000 value=00000000 reg_valid=0 mem_valid=0 | rob_full=0
Time:   1 | clk:1 rst:0 | Dispatch: valid=1 dest=00001 opcode=0110011 | CDB: valid=0 tag=000000 value=00000000 | Retire: tag=000000 dest=00000 value=00000000 reg_valid=0 mem_valid=0 | rob_full=0
Time:   2 | clk:0 rst:0 | Dispatch: valid=1 dest=00010 opcode=0110011 | CDB: valid=0 tag=000000 value=00000000 | Retire: tag=000000 dest=00000 value=00000000 reg_valid=0 mem_valid=0 | rob_full=0
Time:   2 | clk:1 rst:0 | Dispatch: valid=1 dest=00010 opcode=0110011 | CDB: valid=0 tag=000000 value=00000000 | Retire: tag=000000 dest=00000 value=00000000 reg_valid=0 mem_valid=0 | rob_full=0
Time:   3 | clk:0 rst:0 | Dispatch: valid=1 dest=01000 opcode=0110011 | CDB: valid=0 tag=000000 value=00000000 | Retire: tag=000000 dest=00000 value=00000000 reg_valid=0 mem_valid=0 | rob_full=0
Time:   3 | clk:1 rst:0 | Dispatch: valid=1 dest=01000 opcode=0110011 | CDB: valid=0 tag=000000 value=00000000 | Retire: tag=000000 dest=00000 value=00000000 reg_valid=0 mem_valid=0 | rob_full=0
Time:   4 | clk:0 rst:0 | Dispatch: valid=0 dest=01000 opcode=0110011 | CDB: valid=1 tag=000001 value=ffffffff | Retire: tag=000000 dest=00000 value=00000000 reg_valid=0 mem_valid=0 | rob_full=0
Time:   4 | clk:1 rst:0 | Dispatch: valid=0 dest=01000 opcode=0110011 | CDB: valid=1 tag=000001 value=ffffffff | Retire: tag=000000 dest=00000 value=00000000 reg_valid=0 mem_valid=0 | rob_full=0
Time:   5 | clk:0 rst:0 | Dispatch: valid=0 dest=01000 opcode=0110011 | CDB: valid=0 tag=000001 value=ffffffff | Retire: tag=000000 dest=00000 value=00000000 reg_valid=0 mem_valid=0 | rob_full=0
Time:   5 | clk:1 rst:0 | Dispatch: valid=0 dest=01000 opcode=0110011 | CDB: valid=0 tag=000001 value=ffffffff | Retire: tag=000000 dest=00000 value=00000000 reg_valid=0 mem_valid=0 | rob_full=0
Time:   6 | clk:0 rst:0 | Dispatch: valid=0 dest=01000 opcode=0110011 | CDB: valid=0 tag=000001 value=ffffffff | Retire: tag=000000 dest=00000 value=00000000 reg_valid=0 mem_valid=0 | rob_full=0
Time:   6 | clk:1 rst:0 | Dispatch: valid=0 dest=01000 opcode=0110011 | CDB: valid=0 tag=000001 value=ffffffff | Retire: tag=000000 dest=00000 value=00000000 reg_valid=0 mem_valid=0 | rob_full=0
Time:   7 | clk:0 rst:0 | Dispatch: valid=1 dest=11111 opcode=0110011 | CDB: valid=0 tag=000001 value=ffffffff | Retire: tag=000000 dest=00000 value=00000000 reg_valid=0 mem_valid=0 | rob_full=0
Time:   7 | clk:1 rst:0 | Dispatch: valid=1 dest=11111 opcode=0110011 | CDB: valid=0 tag=000001 value=ffffffff | Retire: tag=000000 dest=00000 value=00000000 reg_valid=0 mem_valid=0 | rob_full=0
$finish called from file "test/reorder_buffer_test.sv", line 168.
$finish at simulation time                 7500
           V C S   S i m u l a t i o n   R e p o r t 
Time: 7500 ps
CPU Time:      0.190 seconds;       Data structure size:   0.0Mb
Fri Apr 18 18:40:15 2025
