csee4824-project-4/output/reservation_station.out
Info: [VCS_SAVE_RESTORE_INFO] ASLR (Address Space Layout Randomization) is detected on the machine. To enable $save functionality, ASLR will be switched off and simv re-executed.
Please use '-no_save' simv switch to avoid re-execution or '-suppress=ASLR_DETECTED_INFO' to suppress this message.
Chronologic VCS simulator copyright 1991-2023
Contains Synopsys proprietary information.
Compiler version U-2023.03-SP2-1_Full64; Runtime version U-2023.03-SP2-1_Full64;  Apr 11 16:08 2025
Time:   0 clock:1 reset:1 |Inputs:| cdb_valid:0 cdb_tag:000000 cdb_in:00000000 rob_tag:000000 opa_valid:0 opa_in:00000000 opb_valid:0 opb_in:00000000 load_in:0 use_en:0 free_in:0                 |Outputs:| ready_out:0 avail_out:1 opa_out:00000000 opb_out:00000000 tag_out:000000
Time:   1 clock:0 reset:0 |Inputs:| cdb_valid:0 cdb_tag:000000 cdb_in:00000000 rob_tag:000000 opa_valid:0 opa_in:00000000 opb_valid:0 opb_in:00000000 load_in:0 use_en:0 free_in:0                 |Outputs:| ready_out:0 avail_out:1 opa_out:00000000 opb_out:00000000 tag_out:000000
Time:   1 clock:1 reset:0 |Inputs:| cdb_valid:0 cdb_tag:000000 cdb_in:00000000 rob_tag:000000 opa_valid:0 opa_in:00000000 opb_valid:0 opb_in:00000000 load_in:0 use_en:0 free_in:0                 |Outputs:| ready_out:0 avail_out:1 opa_out:00000000 opb_out:00000000 tag_out:000000
rs contents:
opA:00000000 opA_valid:0 opB:00000000 opB_valid:0 dest_tag:000000 in_use:0 ready:0 available:1
=======================================================================
Time:   2 clock:0 reset:0 |Inputs:| cdb_valid:0 cdb_tag:000000 cdb_in:00000000 rob_tag:000001 opa_valid:0 opa_in:00000002 opb_valid:0 opb_in:00000003 load_in:1 use_en:1 free_in:0                 |Outputs:| ready_out:0 avail_out:1 opa_out:00000000 opb_out:00000000 tag_out:000000
Time:   2 clock:1 reset:0 |Inputs:| cdb_valid:0 cdb_tag:000000 cdb_in:00000000 rob_tag:000001 opa_valid:0 opa_in:00000002 opb_valid:0 opb_in:00000003 load_in:1 use_en:1 free_in:0                 |Outputs:| ready_out:0 avail_out:0 opa_out:00000002 opb_out:00000003 tag_out:000001
rs contents:
opA:00000002 opA_valid:0 opB:00000003 opB_valid:0 dest_tag:000001 in_use:1 ready:0 available:0
=======================================================================
Time:   3 clock:0 reset:0 |Inputs:| cdb_valid:1 cdb_tag:000010 cdb_in:0000ffff rob_tag:000001 opa_valid:0 opa_in:00000002 opb_valid:0 opb_in:00000003 load_in:0 use_en:1 free_in:0                 |Outputs:| ready_out:0 avail_out:0 opa_out:00000002 opb_out:00000003 tag_out:000001
Time:   3 clock:1 reset:0 |Inputs:| cdb_valid:1 cdb_tag:000010 cdb_in:0000ffff rob_tag:000001 opa_valid:0 opa_in:00000002 opb_valid:0 opb_in:00000003 load_in:0 use_en:1 free_in:0                 |Outputs:| ready_out:0 avail_out:0 opa_out:0000ffff opb_out:00000003 tag_out:000001
rs contents:
opA:0000ffff opA_valid:1 opB:00000003 opB_valid:0 dest_tag:000001 in_use:1 ready:0 available:0
=======================================================================
Time:   4 clock:0 reset:0 |Inputs:| cdb_valid:1 cdb_tag:000011 cdb_in:ffff0000 rob_tag:000001 opa_valid:0 opa_in:00000002 opb_valid:0 opb_in:00000003 load_in:0 use_en:1 free_in:0                 |Outputs:| ready_out:0 avail_out:0 opa_out:0000ffff opb_out:00000003 tag_out:000001
Time:   4 clock:1 reset:0 |Inputs:| cdb_valid:1 cdb_tag:000011 cdb_in:ffff0000 rob_tag:000001 opa_valid:0 opa_in:00000002 opb_valid:0 opb_in:00000003 load_in:0 use_en:1 free_in:0                 |Outputs:| ready_out:1 avail_out:0 opa_out:0000ffff opb_out:ffff0000 tag_out:000001
rs contents:
opA:0000ffff opA_valid:1 opB:ffff0000 opB_valid:1 dest_tag:000001 in_use:1 ready:1 available:0
=======================================================================
Time:   5 clock:0 reset:0 |Inputs:| cdb_valid:0 cdb_tag:000011 cdb_in:ffff0000 rob_tag:000001 opa_valid:0 opa_in:00000002 opb_valid:0 opb_in:00000003 load_in:0 use_en:1 free_in:1                 |Outputs:| ready_out:1 avail_out:0 opa_out:0000ffff opb_out:ffff0000 tag_out:000001
Time:   5 clock:1 reset:0 |Inputs:| cdb_valid:0 cdb_tag:000011 cdb_in:ffff0000 rob_tag:000001 opa_valid:0 opa_in:00000002 opb_valid:0 opb_in:00000003 load_in:0 use_en:1 free_in:1                 |Outputs:| ready_out:0 avail_out:1 opa_out:00000000 opb_out:00000000 tag_out:000000
$finish called from file "test/reservation_station_test.sv", line 98.
$finish at simulation time                 5500
           V C S   S i m u l a t i o n   R e p o r t 
Time: 5500 ps
CPU Time:      0.300 seconds;       Data structure size:   0.0Mb
Fri Apr 11 16:08:25 2025
