csee4824-project-4/output/stage_id.out
Info: [VCS_SAVE_RESTORE_INFO] ASLR (Address Space Layout Randomization) is detected on the machine. To enable $save functionality, ASLR will be switched off and simv re-executed.
Please use '-no_save' simv switch to avoid re-execution or '-suppress=ASLR_DETECTED_INFO' to suppress this message.
Chronologic VCS simulator copyright 1991-2023
Contains Synopsys proprietary information.
Compiler version U-2023.03-SP2-1_Full64; Runtime version U-2023.03-SP2-1_Full64;  Apr 13 17:51 2025
Time:   0 clock:1 |Inst| instruction:00a08113 valid:0 |CDB| cdb_broadcast:0 cdb_tag:000000 cdb_value:00000000 |Control| mt_retire:0 rob_retire:0 rob_clear:0 rs1_issue:0 rs1_clear:0 || Outputs: opA:00000000 opB:00000000 output_tag:000000
Time:   1 clock:0 |Inst| instruction:12300093 valid:1 |CDB| cdb_broadcast:0 cdb_tag:000000 cdb_value:00000000 |Control| mt_retire:0 rob_retire:0 rob_clear:0 rs1_issue:0 rs1_clear:0 || Outputs: opA:00000000 opB:00000000 output_tag:000000
Time:   1 clock:1 |Inst| instruction:12300093 valid:1 |CDB| cdb_broadcast:0 cdb_tag:000000 cdb_value:00000000 |Control| mt_retire:0 rob_retire:0 rob_clear:0 rs1_issue:0 rs1_clear:0 || Outputs: opA:00000000 opB:00000000 output_tag:000000
mt contents:
register:00000 tag:000000 ready_in_rob:0 has_tag:1
register:00001 tag:000001 ready_in_rob:0 has_tag:1
register:00010 tag:000000 ready_in_rob:0 has_tag:1
register:00011 tag:000000 ready_in_rob:0 has_tag:1
register:00100 tag:000000 ready_in_rob:0 has_tag:1
register:00101 tag:000000 ready_in_rob:0 has_tag:1
register:00110 tag:000000 ready_in_rob:0 has_tag:1
register:00111 tag:000000 ready_in_rob:0 has_tag:1
register:01000 tag:000000 ready_in_rob:0 has_tag:1
register:01001 tag:000000 ready_in_rob:0 has_tag:1
register:01010 tag:000000 ready_in_rob:0 has_tag:1
register:01011 tag:000000 ready_in_rob:0 has_tag:1
register:01100 tag:000000 ready_in_rob:0 has_tag:1
register:01101 tag:000000 ready_in_rob:0 has_tag:1
register:01110 tag:000000 ready_in_rob:0 has_tag:1
register:01111 tag:000000 ready_in_rob:0 has_tag:1
register:10000 tag:000000 ready_in_rob:0 has_tag:1
register:10001 tag:000000 ready_in_rob:0 has_tag:1
register:10010 tag:000000 ready_in_rob:0 has_tag:1
register:10011 tag:000000 ready_in_rob:0 has_tag:1
register:10100 tag:000000 ready_in_rob:0 has_tag:1
register:10101 tag:000000 ready_in_rob:0 has_tag:1
register:10110 tag:000000 ready_in_rob:0 has_tag:1
register:10111 tag:000000 ready_in_rob:0 has_tag:1
register:11000 tag:000000 ready_in_rob:0 has_tag:1
register:11001 tag:000000 ready_in_rob:0 has_tag:1
register:11010 tag:000000 ready_in_rob:0 has_tag:1
register:11011 tag:000000 ready_in_rob:0 has_tag:1
register:11100 tag:000000 ready_in_rob:0 has_tag:1
register:11101 tag:000000 ready_in_rob:0 has_tag:1
register:11110 tag:000000 ready_in_rob:0 has_tag:1
register:11111 tag:000000 ready_in_rob:0 has_tag:1
rob contents:
status:01 opcode:0010011 dest:00001 value:00000000
status:00 opcode:0000000 dest:00000 value:00000000
status:00 opcode:0000000 dest:00000 value:00000000
status:00 opcode:0000000 dest:00000 value:00000000
status:00 opcode:0000000 dest:00000 value:00000000
status:00 opcode:0000000 dest:00000 value:00000000
status:00 opcode:0000000 dest:00000 value:00000000
status:00 opcode:0000000 dest:00000 value:00000000
status:00 opcode:0000000 dest:00000 value:00000000
status:00 opcode:0000000 dest:00000 value:00000000
status:00 opcode:0000000 dest:00000 value:00000000
status:00 opcode:0000000 dest:00000 value:00000000
status:00 opcode:0000000 dest:00000 value:00000000
status:00 opcode:0000000 dest:00000 value:00000000
status:00 opcode:0000000 dest:00000 value:00000000
status:00 opcode:0000000 dest:00000 value:00000000
status:00 opcode:0000000 dest:00000 value:00000000
status:00 opcode:0000000 dest:00000 value:00000000
status:00 opcode:0000000 dest:00000 value:00000000
status:00 opcode:0000000 dest:00000 value:00000000
status:00 opcode:0000000 dest:00000 value:00000000
status:00 opcode:0000000 dest:00000 value:00000000
status:00 opcode:0000000 dest:00000 value:00000000
status:00 opcode:0000000 dest:00000 value:00000000
status:00 opcode:0000000 dest:00000 value:00000000
status:00 opcode:0000000 dest:00000 value:00000000
status:00 opcode:0000000 dest:00000 value:00000000
status:00 opcode:0000000 dest:00000 value:00000000
status:00 opcode:0000000 dest:00000 value:00000000
status:00 opcode:0000000 dest:00000 value:00000000
status:00 opcode:0000000 dest:00000 value:00000000
status:00 opcode:0000000 dest:00000 value:00000000
h/t pointers:
head:000000 tail:000001
rs contents:
opA:00000000 opA_valid:1 opB:00000123 opB_valid:1 dest_tag:000001 in_use:1 ready:1 available:0
=======================================================================
Time:   2 clock:0 |Inst| instruction:12300093 valid:0 |CDB| cdb_broadcast:1 cdb_tag:000001 cdb_value:00000123 |Control| mt_retire:0 rob_retire:0 rob_clear:0 rs1_issue:0 rs1_clear:0 || Outputs: opA:00000000 opB:00000000 output_tag:000000
Time:   2 clock:1 |Inst| instruction:12300093 valid:0 |CDB| cdb_broadcast:1 cdb_tag:000001 cdb_value:00000123 |Control| mt_retire:0 rob_retire:0 rob_clear:0 rs1_issue:0 rs1_clear:0 || Outputs: opA:00000000 opB:00000000 output_tag:000000
Time:   3 clock:0 |Inst| instruction:12300093 valid:0 |CDB| cdb_broadcast:0 cdb_tag:000000 cdb_value:00000000 |Control| mt_retire:1 rob_retire:1 rob_clear:0 rs1_issue:0 rs1_clear:1 || Outputs: opA:00000000 opB:00000000 output_tag:000000
Time:   3 clock:1 |Inst| instruction:12300093 valid:0 |CDB| cdb_broadcast:0 cdb_tag:000000 cdb_value:00000000 |Control| mt_retire:1 rob_retire:1 rob_clear:0 rs1_issue:0 rs1_clear:1 || Outputs: opA:00000000 opB:00000000 output_tag:000000
Time:   4 clock:0 |Inst| instruction:abc00113 valid:1 |CDB| cdb_broadcast:0 cdb_tag:000000 cdb_value:00000000 |Control| mt_retire:0 rob_retire:0 rob_clear:0 rs1_issue:0 rs1_clear:0 || Outputs: opA:00000000 opB:00000000 output_tag:000000
Time:   4 clock:1 |Inst| instruction:abc00113 valid:1 |CDB| cdb_broadcast:0 cdb_tag:000000 cdb_value:00000000 |Control| mt_retire:0 rob_retire:0 rob_clear:0 rs1_issue:0 rs1_clear:0 || Outputs: opA:00000000 opB:00000000 output_tag:000000
mt contents:
register:00000 tag:000000 ready_in_rob:0 has_tag:1
register:00001 tag:000000 ready_in_rob:0 has_tag:1
register:00010 tag:000010 ready_in_rob:0 has_tag:1
register:00011 tag:000000 ready_in_rob:0 has_tag:1
register:00100 tag:000000 ready_in_rob:0 has_tag:1
register:00101 tag:000000 ready_in_rob:0 has_tag:1
register:00110 tag:000000 ready_in_rob:0 has_tag:1
register:00111 tag:000000 ready_in_rob:0 has_tag:1
register:01000 tag:000000 ready_in_rob:0 has_tag:1
register:01001 tag:000000 ready_in_rob:0 has_tag:1
register:01010 tag:000000 ready_in_rob:0 has_tag:1
register:01011 tag:000000 ready_in_rob:0 has_tag:1
register:01100 tag:000000 ready_in_rob:0 has_tag:1
register:01101 tag:000000 ready_in_rob:0 has_tag:1
register:01110 tag:000000 ready_in_rob:0 has_tag:1
register:01111 tag:000000 ready_in_rob:0 has_tag:1
register:10000 tag:000000 ready_in_rob:0 has_tag:1
register:10001 tag:000000 ready_in_rob:0 has_tag:1
register:10010 tag:000000 ready_in_rob:0 has_tag:1
register:10011 tag:000000 ready_in_rob:0 has_tag:1
register:10100 tag:000000 ready_in_rob:0 has_tag:1
register:10101 tag:000000 ready_in_rob:0 has_tag:1
register:10110 tag:000000 ready_in_rob:0 has_tag:1
register:10111 tag:000000 ready_in_rob:0 has_tag:1
register:11000 tag:000000 ready_in_rob:0 has_tag:1
register:11001 tag:000000 ready_in_rob:0 has_tag:1
register:11010 tag:000000 ready_in_rob:0 has_tag:1
register:11011 tag:000000 ready_in_rob:0 has_tag:1
register:11100 tag:000000 ready_in_rob:0 has_tag:1
register:11101 tag:000000 ready_in_rob:0 has_tag:1
register:11110 tag:000000 ready_in_rob:0 has_tag:1
register:11111 tag:000000 ready_in_rob:0 has_tag:1
rob contents:
status:00 opcode:0000000 dest:00000 value:00000000
status:01 opcode:0010011 dest:00010 value:00000000
status:00 opcode:0000000 dest:00000 value:00000000
status:00 opcode:0000000 dest:00000 value:00000000
status:00 opcode:0000000 dest:00000 value:00000000
status:00 opcode:0000000 dest:00000 value:00000000
status:00 opcode:0000000 dest:00000 value:00000000
status:00 opcode:0000000 dest:00000 value:00000000
status:00 opcode:0000000 dest:00000 value:00000000
status:00 opcode:0000000 dest:00000 value:00000000
status:00 opcode:0000000 dest:00000 value:00000000
status:00 opcode:0000000 dest:00000 value:00000000
status:00 opcode:0000000 dest:00000 value:00000000
status:00 opcode:0000000 dest:00000 value:00000000
status:00 opcode:0000000 dest:00000 value:00000000
status:00 opcode:0000000 dest:00000 value:00000000
status:00 opcode:0000000 dest:00000 value:00000000
status:00 opcode:0000000 dest:00000 value:00000000
status:00 opcode:0000000 dest:00000 value:00000000
status:00 opcode:0000000 dest:00000 value:00000000
status:00 opcode:0000000 dest:00000 value:00000000
status:00 opcode:0000000 dest:00000 value:00000000
status:00 opcode:0000000 dest:00000 value:00000000
status:00 opcode:0000000 dest:00000 value:00000000
status:00 opcode:0000000 dest:00000 value:00000000
status:00 opcode:0000000 dest:00000 value:00000000
status:00 opcode:0000000 dest:00000 value:00000000
status:00 opcode:0000000 dest:00000 value:00000000
status:00 opcode:0000000 dest:00000 value:00000000
status:00 opcode:0000000 dest:00000 value:00000000
status:00 opcode:0000000 dest:00000 value:00000000
status:00 opcode:0000000 dest:00000 value:00000000
h/t pointers:
head:000001 tail:000010
rs contents:
opA:00000000 opA_valid:1 opB:fffffabc opB_valid:1 dest_tag:000010 in_use:1 ready:1 available:0
=======================================================================
Time:   5 clock:0 |Inst| instruction:abc00113 valid:0 |CDB| cdb_broadcast:1 cdb_tag:000010 cdb_value:fffffabc |Control| mt_retire:0 rob_retire:0 rob_clear:0 rs1_issue:0 rs1_clear:0 || Outputs: opA:00000000 opB:00000000 output_tag:000000
Time:   5 clock:1 |Inst| instruction:abc00113 valid:0 |CDB| cdb_broadcast:1 cdb_tag:000010 cdb_value:fffffabc |Control| mt_retire:0 rob_retire:0 rob_clear:0 rs1_issue:0 rs1_clear:0 || Outputs: opA:00000000 opB:00000000 output_tag:000000
Time:   6 clock:0 |Inst| instruction:abc00113 valid:0 |CDB| cdb_broadcast:0 cdb_tag:000000 cdb_value:00000000 |Control| mt_retire:1 rob_retire:1 rob_clear:0 rs1_issue:0 rs1_clear:1 || Outputs: opA:00000000 opB:00000000 output_tag:000000
Time:   6 clock:1 |Inst| instruction:abc00113 valid:0 |CDB| cdb_broadcast:0 cdb_tag:000000 cdb_value:00000000 |Control| mt_retire:1 rob_retire:1 rob_clear:0 rs1_issue:0 rs1_clear:1 || Outputs: opA:00000000 opB:00000000 output_tag:000000
Time:   7 clock:0 |Inst| instruction:002081b3 valid:1 |CDB| cdb_broadcast:0 cdb_tag:000000 cdb_value:00000000 |Control| mt_retire:0 rob_retire:0 rob_clear:0 rs1_issue:0 rs1_clear:0 || Outputs: opA:00000000 opB:00000000 output_tag:000000
Time:   7 clock:1 |Inst| instruction:002081b3 valid:1 |CDB| cdb_broadcast:0 cdb_tag:000000 cdb_value:00000000 |Control| mt_retire:0 rob_retire:0 rob_clear:0 rs1_issue:0 rs1_clear:0 || Outputs: opA:00000000 opB:00000000 output_tag:000000
mt contents:
register:00000 tag:000000 ready_in_rob:0 has_tag:1
register:00001 tag:000000 ready_in_rob:0 has_tag:1
register:00010 tag:000000 ready_in_rob:0 has_tag:1
register:00011 tag:000011 ready_in_rob:0 has_tag:1
register:00100 tag:000000 ready_in_rob:0 has_tag:1
register:00101 tag:000000 ready_in_rob:0 has_tag:1
register:00110 tag:000000 ready_in_rob:0 has_tag:1
register:00111 tag:000000 ready_in_rob:0 has_tag:1
register:01000 tag:000000 ready_in_rob:0 has_tag:1
register:01001 tag:000000 ready_in_rob:0 has_tag:1
register:01010 tag:000000 ready_in_rob:0 has_tag:1
register:01011 tag:000000 ready_in_rob:0 has_tag:1
register:01100 tag:000000 ready_in_rob:0 has_tag:1
register:01101 tag:000000 ready_in_rob:0 has_tag:1
register:01110 tag:000000 ready_in_rob:0 has_tag:1
register:01111 tag:000000 ready_in_rob:0 has_tag:1
register:10000 tag:000000 ready_in_rob:0 has_tag:1
register:10001 tag:000000 ready_in_rob:0 has_tag:1
register:10010 tag:000000 ready_in_rob:0 has_tag:1
register:10011 tag:000000 ready_in_rob:0 has_tag:1
register:10100 tag:000000 ready_in_rob:0 has_tag:1
register:10101 tag:000000 ready_in_rob:0 has_tag:1
register:10110 tag:000000 ready_in_rob:0 has_tag:1
register:10111 tag:000000 ready_in_rob:0 has_tag:1
register:11000 tag:000000 ready_in_rob:0 has_tag:1
register:11001 tag:000000 ready_in_rob:0 has_tag:1
register:11010 tag:000000 ready_in_rob:0 has_tag:1
register:11011 tag:000000 ready_in_rob:0 has_tag:1
register:11100 tag:000000 ready_in_rob:0 has_tag:1
register:11101 tag:000000 ready_in_rob:0 has_tag:1
register:11110 tag:000000 ready_in_rob:0 has_tag:1
register:11111 tag:000000 ready_in_rob:0 has_tag:1
rob contents:
status:00 opcode:0000000 dest:00000 value:00000000
status:00 opcode:0000000 dest:00000 value:00000000
status:01 opcode:0110011 dest:00011 value:00000000
status:00 opcode:0000000 dest:00000 value:00000000
status:00 opcode:0000000 dest:00000 value:00000000
status:00 opcode:0000000 dest:00000 value:00000000
status:00 opcode:0000000 dest:00000 value:00000000
status:00 opcode:0000000 dest:00000 value:00000000
status:00 opcode:0000000 dest:00000 value:00000000
status:00 opcode:0000000 dest:00000 value:00000000
status:00 opcode:0000000 dest:00000 value:00000000
status:00 opcode:0000000 dest:00000 value:00000000
status:00 opcode:0000000 dest:00000 value:00000000
status:00 opcode:0000000 dest:00000 value:00000000
status:00 opcode:0000000 dest:00000 value:00000000
status:00 opcode:0000000 dest:00000 value:00000000
status:00 opcode:0000000 dest:00000 value:00000000
status:00 opcode:0000000 dest:00000 value:00000000
status:00 opcode:0000000 dest:00000 value:00000000
status:00 opcode:0000000 dest:00000 value:00000000
status:00 opcode:0000000 dest:00000 value:00000000
status:00 opcode:0000000 dest:00000 value:00000000
status:00 opcode:0000000 dest:00000 value:00000000
status:00 opcode:0000000 dest:00000 value:00000000
status:00 opcode:0000000 dest:00000 value:00000000
status:00 opcode:0000000 dest:00000 value:00000000
status:00 opcode:0000000 dest:00000 value:00000000
status:00 opcode:0000000 dest:00000 value:00000000
status:00 opcode:0000000 dest:00000 value:00000000
status:00 opcode:0000000 dest:00000 value:00000000
status:00 opcode:0000000 dest:00000 value:00000000
status:00 opcode:0000000 dest:00000 value:00000000
h/t pointers:
head:000010 tail:000011
rs contents:
opA:00000123 opA_valid:1 opB:fffffabc opB_valid:1 dest_tag:000011 in_use:1 ready:1 available:0
=======================================================================
Time:   8 clock:0 |Inst| instruction:002081b3 valid:0 |CDB| cdb_broadcast:0 cdb_tag:000000 cdb_value:00000000 |Control| mt_retire:0 rob_retire:0 rob_clear:0 rs1_issue:0 rs1_clear:1 || Outputs: opA:00000000 opB:00000000 output_tag:000000
Time:   8 clock:1 |Inst| instruction:002081b3 valid:0 |CDB| cdb_broadcast:0 cdb_tag:000000 cdb_value:00000000 |Control| mt_retire:0 rob_retire:0 rob_clear:0 rs1_issue:0 rs1_clear:1 || Outputs: opA:00000000 opB:00000000 output_tag:000000
Time:   9 clock:0 |Inst| instruction:00310233 valid:1 |CDB| cdb_broadcast:0 cdb_tag:000000 cdb_value:00000000 |Control| mt_retire:0 rob_retire:0 rob_clear:0 rs1_issue:0 rs1_clear:0 || Outputs: opA:00000000 opB:00000000 output_tag:000000
Time:   9 clock:1 |Inst| instruction:00310233 valid:1 |CDB| cdb_broadcast:0 cdb_tag:000000 cdb_value:00000000 |Control| mt_retire:0 rob_retire:0 rob_clear:0 rs1_issue:0 rs1_clear:0 || Outputs: opA:00000000 opB:00000000 output_tag:000000
mt contents:
register:00000 tag:000000 ready_in_rob:0 has_tag:1
register:00001 tag:000000 ready_in_rob:0 has_tag:1
register:00010 tag:000000 ready_in_rob:0 has_tag:1
register:00011 tag:000011 ready_in_rob:0 has_tag:1
register:00100 tag:000100 ready_in_rob:0 has_tag:1
register:00101 tag:000000 ready_in_rob:0 has_tag:1
register:00110 tag:000000 ready_in_rob:0 has_tag:1
register:00111 tag:000000 ready_in_rob:0 has_tag:1
register:01000 tag:000000 ready_in_rob:0 has_tag:1
register:01001 tag:000000 ready_in_rob:0 has_tag:1
register:01010 tag:000000 ready_in_rob:0 has_tag:1
register:01011 tag:000000 ready_in_rob:0 has_tag:1
register:01100 tag:000000 ready_in_rob:0 has_tag:1
register:01101 tag:000000 ready_in_rob:0 has_tag:1
register:01110 tag:000000 ready_in_rob:0 has_tag:1
register:01111 tag:000000 ready_in_rob:0 has_tag:1
register:10000 tag:000000 ready_in_rob:0 has_tag:1
register:10001 tag:000000 ready_in_rob:0 has_tag:1
register:10010 tag:000000 ready_in_rob:0 has_tag:1
register:10011 tag:000000 ready_in_rob:0 has_tag:1
register:10100 tag:000000 ready_in_rob:0 has_tag:1
register:10101 tag:000000 ready_in_rob:0 has_tag:1
register:10110 tag:000000 ready_in_rob:0 has_tag:1
register:10111 tag:000000 ready_in_rob:0 has_tag:1
register:11000 tag:000000 ready_in_rob:0 has_tag:1
register:11001 tag:000000 ready_in_rob:0 has_tag:1
register:11010 tag:000000 ready_in_rob:0 has_tag:1
register:11011 tag:000000 ready_in_rob:0 has_tag:1
register:11100 tag:000000 ready_in_rob:0 has_tag:1
register:11101 tag:000000 ready_in_rob:0 has_tag:1
register:11110 tag:000000 ready_in_rob:0 has_tag:1
register:11111 tag:000000 ready_in_rob:0 has_tag:1
rob contents:
status:00 opcode:0000000 dest:00000 value:00000000
status:00 opcode:0000000 dest:00000 value:00000000
status:01 opcode:0110011 dest:00011 value:00000000
status:01 opcode:0110011 dest:00100 value:00000000
status:00 opcode:0000000 dest:00000 value:00000000
status:00 opcode:0000000 dest:00000 value:00000000
status:00 opcode:0000000 dest:00000 value:00000000
status:00 opcode:0000000 dest:00000 value:00000000
status:00 opcode:0000000 dest:00000 value:00000000
status:00 opcode:0000000 dest:00000 value:00000000
status:00 opcode:0000000 dest:00000 value:00000000
status:00 opcode:0000000 dest:00000 value:00000000
status:00 opcode:0000000 dest:00000 value:00000000
status:00 opcode:0000000 dest:00000 value:00000000
status:00 opcode:0000000 dest:00000 value:00000000
status:00 opcode:0000000 dest:00000 value:00000000
status:00 opcode:0000000 dest:00000 value:00000000
status:00 opcode:0000000 dest:00000 value:00000000
status:00 opcode:0000000 dest:00000 value:00000000
status:00 opcode:0000000 dest:00000 value:00000000
status:00 opcode:0000000 dest:00000 value:00000000
status:00 opcode:0000000 dest:00000 value:00000000
status:00 opcode:0000000 dest:00000 value:00000000
status:00 opcode:0000000 dest:00000 value:00000000
status:00 opcode:0000000 dest:00000 value:00000000
status:00 opcode:0000000 dest:00000 value:00000000
status:00 opcode:0000000 dest:00000 value:00000000
status:00 opcode:0000000 dest:00000 value:00000000
status:00 opcode:0000000 dest:00000 value:00000000
status:00 opcode:0000000 dest:00000 value:00000000
status:00 opcode:0000000 dest:00000 value:00000000
status:00 opcode:0000000 dest:00000 value:00000000
h/t pointers:
head:000010 tail:000100
rs contents:
opA:fffffabc opA_valid:1 opB:00000003 opB_valid:0 dest_tag:000100 in_use:1 ready:0 available:0
=======================================================================
$finish called from file "test/stage_id_test.sv", line 316.
$finish at simulation time                 9500
           V C S   S i m u l a t i o n   R e p o r t 
Time: 9500 ps
CPU Time:      0.300 seconds;       Data structure size:   0.0Mb
Sun Apr 13 17:51:21 2025
