csee4824-project-4/output/stage_id.out
Info: [VCS_SAVE_RESTORE_INFO] ASLR (Address Space Layout Randomization) is detected on the machine. To enable $save functionality, ASLR will be switched off and simv re-executed.
Please use '-no_save' simv switch to avoid re-execution or '-suppress=ASLR_DETECTED_INFO' to suppress this message.
Chronologic VCS simulator copyright 1991-2023
Contains Synopsys proprietary information.
Compiler version U-2023.03-SP2-1_Full64; Runtime version U-2023.03-SP2-1_Full64;  Apr 18 18:43 2025
Time:   0 clock:1 |Inst| instruction:00a08113 valid:0 |CDB| cdb_broadcast:0 cdb_tag:00000 cdb_value:00000000 |Control| mt_retire:0 rob_retire:0 rob_clear:0 rs1_issue:0 rs1_clear:0 || Outputs: opA:00000000 opB:00000000 output_tag:00000
Time:   1 clock:0 |Inst| instruction:12300093 valid:1 |CDB| cdb_broadcast:0 cdb_tag:00000 cdb_value:00000000 |Control| mt_retire:0 rob_retire:0 rob_clear:0 rs1_issue:0 rs1_clear:0 || Outputs: opA:00000000 opB:00000000 output_tag:00000
Time:   1 clock:1 |Inst| instruction:12300093 valid:1 |CDB| cdb_broadcast:0 cdb_tag:00000 cdb_value:00000000 |Control| mt_retire:0 rob_retire:0 rob_clear:0 rs1_issue:0 rs1_clear:0 || Outputs: opA:00000000 opB:00000123 output_tag:xxxxx
Time:   2 clock:0 |Inst| instruction:12300093 valid:0 |CDB| cdb_broadcast:1 cdb_tag:00001 cdb_value:00000123 |Control| mt_retire:0 rob_retire:0 rob_clear:0 rs1_issue:0 rs1_clear:0 || Outputs: opA:00000000 opB:00000123 output_tag:xxxxx
Time:   2 clock:1 |Inst| instruction:12300093 valid:0 |CDB| cdb_broadcast:1 cdb_tag:00001 cdb_value:00000123 |Control| mt_retire:0 rob_retire:0 rob_clear:0 rs1_issue:0 rs1_clear:0 || Outputs: opA:00000000 opB:00000123 output_tag:xxxxx
Time:   3 clock:0 |Inst| instruction:12300093 valid:0 |CDB| cdb_broadcast:0 cdb_tag:00000 cdb_value:00000000 |Control| mt_retire:1 rob_retire:1 rob_clear:0 rs1_issue:0 rs1_clear:1 || Outputs: opA:00000000 opB:00000123 output_tag:xxxxx
Time:   3 clock:1 |Inst| instruction:12300093 valid:0 |CDB| cdb_broadcast:0 cdb_tag:00000 cdb_value:00000000 |Control| mt_retire:1 rob_retire:1 rob_clear:0 rs1_issue:0 rs1_clear:1 || Outputs: opA:00000000 opB:00000000 output_tag:00000
Time:   4 clock:0 |Inst| instruction:abc00113 valid:1 |CDB| cdb_broadcast:0 cdb_tag:00000 cdb_value:00000000 |Control| mt_retire:0 rob_retire:0 rob_clear:0 rs1_issue:0 rs1_clear:0 || Outputs: opA:00000000 opB:00000000 output_tag:00000
Time:   4 clock:1 |Inst| instruction:abc00113 valid:1 |CDB| cdb_broadcast:0 cdb_tag:00000 cdb_value:00000000 |Control| mt_retire:0 rob_retire:0 rob_clear:0 rs1_issue:0 rs1_clear:0 || Outputs: opA:00000000 opB:fffffabc output_tag:xxxxx
Time:   5 clock:0 |Inst| instruction:abc00113 valid:0 |CDB| cdb_broadcast:1 cdb_tag:00010 cdb_value:fffffabc |Control| mt_retire:0 rob_retire:0 rob_clear:0 rs1_issue:0 rs1_clear:0 || Outputs: opA:00000000 opB:fffffabc output_tag:xxxxx
Time:   5 clock:1 |Inst| instruction:abc00113 valid:0 |CDB| cdb_broadcast:1 cdb_tag:00010 cdb_value:fffffabc |Control| mt_retire:0 rob_retire:0 rob_clear:0 rs1_issue:0 rs1_clear:0 || Outputs: opA:00000000 opB:fffffabc output_tag:xxxxx
Time:   6 clock:0 |Inst| instruction:abc00113 valid:0 |CDB| cdb_broadcast:0 cdb_tag:00000 cdb_value:00000000 |Control| mt_retire:1 rob_retire:1 rob_clear:0 rs1_issue:0 rs1_clear:1 || Outputs: opA:00000000 opB:fffffabc output_tag:xxxxx
Time:   6 clock:1 |Inst| instruction:abc00113 valid:0 |CDB| cdb_broadcast:0 cdb_tag:00000 cdb_value:00000000 |Control| mt_retire:1 rob_retire:1 rob_clear:0 rs1_issue:0 rs1_clear:1 || Outputs: opA:00000000 opB:00000000 output_tag:00000
Time:   7 clock:0 |Inst| instruction:002081b3 valid:1 |CDB| cdb_broadcast:0 cdb_tag:00000 cdb_value:00000000 |Control| mt_retire:0 rob_retire:0 rob_clear:0 rs1_issue:0 rs1_clear:0 || Outputs: opA:00000000 opB:00000000 output_tag:00000
Time:   7 clock:1 |Inst| instruction:002081b3 valid:1 |CDB| cdb_broadcast:0 cdb_tag:00000 cdb_value:00000000 |Control| mt_retire:0 rob_retire:0 rob_clear:0 rs1_issue:0 rs1_clear:0 || Outputs: opA:000000Xx opB:000000Xx output_tag:xxxxx
Time:   8 clock:0 |Inst| instruction:002081b3 valid:0 |CDB| cdb_broadcast:0 cdb_tag:00000 cdb_value:00000000 |Control| mt_retire:0 rob_retire:0 rob_clear:0 rs1_issue:0 rs1_clear:1 || Outputs: opA:000000Xx opB:000000Xx output_tag:xxxxx
Time:   8 clock:1 |Inst| instruction:002081b3 valid:0 |CDB| cdb_broadcast:0 cdb_tag:00000 cdb_value:00000000 |Control| mt_retire:0 rob_retire:0 rob_clear:0 rs1_issue:0 rs1_clear:1 || Outputs: opA:00000000 opB:00000000 output_tag:00000
Time:   9 clock:0 |Inst| instruction:00310233 valid:1 |CDB| cdb_broadcast:0 cdb_tag:00000 cdb_value:00000000 |Control| mt_retire:0 rob_retire:0 rob_clear:0 rs1_issue:0 rs1_clear:0 || Outputs: opA:00000000 opB:00000000 output_tag:00000
Time:   9 clock:1 |Inst| instruction:00310233 valid:1 |CDB| cdb_broadcast:0 cdb_tag:00000 cdb_value:00000000 |Control| mt_retire:0 rob_retire:0 rob_clear:0 rs1_issue:0 rs1_clear:0 || Outputs: opA:000000Xx opB:000000Xx output_tag:xxxxx
$finish called from file "test/stage_id_test.sv", line 316.
$finish at simulation time                 9500
           V C S   S i m u l a t i o n   R e p o r t 
Time: 9500 ps
CPU Time:      0.200 seconds;       Data structure size:   0.0Mb
Fri Apr 18 18:43:02 2025
